uu.goktas14:~/pllab2017/week5$ ./a.out
Size of arr2d(10 rows and 12 cols) is=480 bytes 
*ptr1 is: 3
ptr1  is 140730249411344
ptr1+4 is  140730249411360
*(ptr1+4) is 4
ptr2 is 140730249411392
(ptr2+2) is 140730249411400
*(ptr2+2) is 5
 ptr1+? =ptr2
12
CORRECT!
 Can you guess the address of arr2d[1][2]?
140730249411400
CORRECT!
uu.goktas14@eng22:~/pllab2017/week5$ 


uu.goktas14@eng22:~/pllab2017/week5$ ./a.out
arr2d[0][0]= 3
arr2d[0][4]= 4
arr2d[1][2]= 5
1uu.goktas14@eng22:~/pllab2017/week5$ 





